el 2 és un primer de S. Germain. El 5 és el seu primer segur
el 3 és un primer de S. Germain. El 7 és el seu primer segur
el 5 és un primer de S. Germain. El 11 és el seu primer segur
el 11 és un primer de S. Germain. El 23 és el seu primer segur
el 23 és un primer de S. Germain. El 47 és el seu primer segur
el 29 és un primer de S. Germain. El 59 és el seu primer segur
el 41 és un primer de S. Germain. El 83 és el seu primer segur
el 53 és un primer de S. Germain. El 107 és el seu primer segur
el 83 és un primer de S. Germain. El 167 és el seu primer segur
el 89 és un primer de S. Germain. El 179 és el seu primer segur
