10:00;examen programació;04:00;1
14:05;dinar;01:30;3
08:00;passejar el gos;00:30;10
15:00;passejar el gos;00:30;10
23:45;passejar el gos;00:30;10
09:00;esmorzar;00:30;3
21:00;sopar;00:30;3
17:00;estudiar SO;02:00;2
19:00;estudiar programació;02:00;2
